{
    "v23": {
        "MC15c" : 36.18486,
        "MC16a" : 36.18486,
        "MC16c" : 43.81370,
        "MC16d" : 43.81370,
        "MC16e" : 0.000000,
        "MC16f" : 0.000000
    },
    "v25": {
        "MC15c" : 36.18486,
        "MC16a" : 36.20766,
        "MC16c" : 44.30740,
        "MC16d" : 44.30740,
        "MC16e" : 0.000000,
        "MC16f" : 0.000000
    },
    "v27": {
        "MC15c" : 36.18486,
        "MC16a" : 36.20766,
        "MC16c" : 44.30740,
        "MC16d" : 44.30740,
        "MC16e" : 47.82470,
        "MC16f" : 0.000000
    },
    "v28": {
        "MC15c" : 36.18486,
        "MC16a" : 36.20766,
        "MC16c" : 44.30740,
        "MC16d" : 44.30740,
        "MC16e" : 59.93720,
        "MC16f" : 0.000000
    },
    "v29": {
        "MC15c" : 36.18486,
        "MC16a" : 36.20766,
        "MC16c" : 44.30740,
        "MC16d" : 44.30740,
        "MC16e" : 58.45010,
        "MC16f" : 0.000000
    },
    "tnv01": {
        "MC15c" : 36.18486,
        "MC16a" : 36.20766,
        "MC16c" : 44.30740,
        "MC16d" : 44.30740,
        "MC16e" : 58.45010,
        "MC16f" : 0.000000
    },
    "CS29": {
        "MC15c" : 36.18486,
        "MC16a" : 36.20766,
        "MC16c" : 44.30740,
        "MC16d" : 44.30740,
        "MC16e" : 58.45010,
        "MC16f" : 0.000000
    }
}
